{"sources":[{"id":"sess_o3aNYJmnJ9OBeUw0ulECki5a","type":"session","tag":{"date":"2026-06-21","source":"agent","project":"gen-lang-client-0135267128","category":"General","decision":"true","architect":"true","timestamp":"2026-06-21T21:08:36.945609Z"},"updated_at":null}],"page":1,"total_pages":148,"total":148}